Man the Hunter, Natural Language Processing
…
tog_gath <- words_nearby %>%
  filter(str_starts(word_s, "gath"))%>%
  count(pre_word_s, word_s, sort = TRUE) %>%
  mutate(percent  = 100*n/sum(n))
tog_gath

# A tibble: 96 × 4
   pre_word_s word_s     n percent
   <chr>      <chr>  <int>   <dbl>
 1 hunt       gather   371  70.5  
 2 food       gather    33   6.27 
 3 woman      gather     5   0.951
 4 female     gather     4   0.760
 5 activity   gather     3   0.570
 6 datum      gather     3   0.570
 7 dependence gather     3   0.570
 8 fish       gather     3   0.570
 9 man        gather     3   0.570
10 people     gather     3   0.570
# ℹ 86 more rows

# what follows hunter?
tog_hunt_post <- words_nearby %>%
  filter(str_starts(word_s, "hunt"))%>%
  count(word_s, next_word_s, sort = TRUE) %>%
  mutate(percent  = 100*n/sum(n))

tog_hunt_post

# A tibble: 577 × 4
   word_s next_word_s     n percent
   <chr>  <chr>       <int>   <dbl>
 1 hunt   gather        371  24.0  
 2 hunt   people         36   2.33 
 3 hunt   group          34   2.20 
 4 hunt   human          32   2.07 
 5 hunt   society        31   2.00 
 6 hunt   large          25   1.62 
 7 hunt   fish           22   1.42 
 8 hunt   life           20   1.29 
 9 hunt   live           20   1.29 
10 hunt   hunt           15   0.970
# ℹ 567 more rows

# what comes before hunter?

tog_hunt_pre <- words_nearby %>%
  filter(str_starts(word_s, "hunt"))%>%
  count(pre_word_s,word_s,  sort = TRUE) %>%
  mutate(percent  = 100*n/sum(n))

tog_hunt_pre

# A tibble: 712 × 4
   pre_word_s  word_s     n percent
   <chr>       <chr>  <int>   <dbl>
 1 man         hunt      37   2.39 
 2 live        hunt      23   1.49 
 3 modern      hunt      22   1.42 
 4 prehistoric hunt      21   1.36 
 5 study       hunt      21   1.36 
 6 human       hunt      16   1.03 
 7 net         hunt      16   1.03 
 8 primitive   hunt      16   1.03 
 9 hunt        hunt      15   0.970
10 world       hunt      14   0.905
# ℹ 702 more rows
…
